[
	{
		"id": "4",
		"picUrl": "../../images/1.jpg",
		"title": "One",
		"info": "This is object number 1",
		"toShow": true
	},
	{
		"id": "5",
		"picUrl": "../../images/2.jpg",
		"title": "Two",
		"info": "This is object number 2",
		"toShow": true
	},
	{
		"id": "6",
		"picUrl": "../../images/3.jpg",
		"title": "Three",
		"info": "This is object number 3",
		"toShow": true
	}
]